Shells Analysis
…
Supplementary Information

The following table shows summary statistics of roughness per sample and per region around the perforation. These lines of code were written by AZ.

## # A tibble: 304 x 6
## # Groups:   PF [76]
##       PF perf.area   max_roughness min_roughness mean_roughness stD_roughness
##    <dbl> <ord>               <dbl>         <dbl>          <dbl>         <dbl>
##  1  2910 Upper left         0.0277       0.00405         0.0105       0.00557
##  2  2910 Lower left         0.0407       0.00415         0.0108       0.00684
##  3  2910 Upper right        0.0310       0.00407         0.0119       0.00623
##  4  2910 Lower right        0.0578       0.00400         0.0167       0.0129 
##  5  2915 Upper left         0.0248       0.00704         0.0117       0.00428
##  6  2915 Lower left         0.0345       0.00715         0.0139       0.00619
##  7  2915 Upper right        0.0403       0.00717         0.0159       0.00723
##  8  2915 Lower right        0.0373       0.00710         0.0174       0.00700
##  9  2916 Upper left         0.0326       0.00903         0.0166       0.00562
## 10  2916 Lower left         0.0403       0.00910         0.0179       0.00806
## #  with 294 more rows
…
